{

   "root": false,
   "env": {
      "browser": true
   },
   "extends": [
      "eslint:recommended",
      "plugin:@typescript-eslint/eslint-recommended",
      "plugin:@typescript-eslint/recommended"
   ],
   "parser": "@typescript-eslint/parser",
   "parserOptions": {
      "project": ["./config/tsconfig.dev.json"]
   },
   "plugins": [
      "@typescript-eslint"
   ],
   "rules": {

      "indent": [
         "error", 3,
         { "SwitchCase": 1 }
      ],
      "quotes": ["error", "double"],
      "semi": ["error", "always"],

      "@typescript-eslint/no-explicit-any": "off"

   }

}